Data_Analysis_Element_Type
…
I assume that you want us to run a tukeyHSD here but when I attempted to do so I had some errors trying to figure it out. I ended up checking chapter 6 but didn’t see anything about how to use a TukeyHSD here so if you’d like one in the final analysis I’d prefer to meet with you about the proper setup for a two-way anova tukey. I ended up following the chapter to create a plot using the means and std deviations to show variation.

I will now create a plot using the means and std deviations of each of the commbinations.

sum_stream <- Stream |> group_by(Element, Type) |> summarise(
  mean_Concentration = mean(Concentration_ppm),
    sd_Concentration = sd(Concentration_ppm)/sqrt(n())
)

`summarise()` has grouped output by 'Element'. You can override using the
`.groups` argument.

sum_stream

# A tibble: 24 × 4
# Groups:   Element [4]
   Element Type         mean_Concentration sd_Concentration
   <fct>   <fct>                     <dbl>            <dbl>
 1 Fe      lake                      0.932           0.104 
 2 Fe      river                     0.596           0.139 
 3 Fe      seep                    288.             54.7   
 4 Fe      seep_control              1.01            0.751 
 5 Fe      trib                      3.70            0.803 
 6 Fe      wetland                   3.77            1.79  
 7 K       lake                      0.302           0.0520
 8 K       river                     0.424           0.0278
 9 K       seep                      2.40            0.410 
10 K       seep_control              0.295           0.0365
# ℹ 14 more rows
…
